{
  "hash": "88226630",
  "configHash": "60cd3b1b",
  "lockfileHash": "8459b87c",
  "browserHash": "8c43cecb",
  "optimized": {
    "@angular/common": {
      "src": "../../../../../node_modules/@angular/common/fesm2022/common.mjs",
      "file": "@angular_common.js",
      "fileHash": "be02be47",
      "needsInterop": false
    },
    "@angular/core": {
      "src": "../../../../../node_modules/@angular/core/fesm2022/core.mjs",
      "file": "@angular_core.js",
      "fileHash": "66d852ea",
      "needsInterop": false
    },
    "@angular/forms": {
      "src": "../../../../../node_modules/@angular/forms/fesm2022/forms.mjs",
      "file": "@angular_forms.js",
      "fileHash": "02aacdee",
      "needsInterop": false
    },
    "@angular/platform-browser": {
      "src": "../../../../../node_modules/@angular/platform-browser/fesm2022/platform-browser.mjs",
      "file": "@angular_platform-browser.js",
      "fileHash": "cc75c2b0",
      "needsInterop": false
    },
    "@angular/router": {
      "src": "../../../../../node_modules/@angular/router/fesm2022/router.mjs",
      "file": "@angular_router.js",
      "fileHash": "8f417a19",
      "needsInterop": false
    },
    "@ng-bootstrap/ng-bootstrap": {
      "src": "../../../../../node_modules/@ng-bootstrap/ng-bootstrap/fesm2022/ng-bootstrap.mjs",
      "file": "@ng-bootstrap_ng-bootstrap.js",
      "fileHash": "b8e9e935",
      "needsInterop": false
    }
  },
  "chunks": {
    "chunk-FXRSBRV3": {
      "file": "chunk-FXRSBRV3.js"
    },
    "chunk-FAHCSVRO": {
      "file": "chunk-FAHCSVRO.js"
    },
    "chunk-P2UHPN3J": {
      "file": "chunk-P2UHPN3J.js"
    },
    "chunk-7EMFP2CE": {
      "file": "chunk-7EMFP2CE.js"
    }
  }
}